{
  "$schema": "../../node_modules/ng-packagr/ng-package.schema.json",
  "dest": "../../dist/compost-lib",
  "whitelistedNonPeerDependencies": [
    "."
  ],
  "lib": {
    "entryFile": "src/public_api.ts"
  }
}
